<svg width="18" height="16" viewBox="0 0 18 16" fill="none" xmlns="http://www.w3.org/2000/svg">
<path fill-rule="evenodd" clip-rule="evenodd" d="M0 7.51993C0 3.16077 4.05036 -0.00723068 9 1.23946e-05C13.9496 0.00725547 18 3.16077 18 7.51993C18 11.8791 13.6073 15.0399 9 15.0399C8.24368 15.0399 7.40628 14.9292 6.7137 14.8766C6.02111 14.8239 4.61336 16.1503 2.86364 15.9859C3.8155 15.3279 4.18626 14.5637 4.29653 13.8994C1.7964 12.6051 0 10.3076 0 7.51993Z" fill="white"/>
</svg>
